dff_we_tb.vcd
$date
	Mon Mar  4 00:26:06 2024
$end
$version
	Icarus Verilog
$end
$timescale
	1s
$end
$scope module dff_we_tb $end
$var wire 1 ! q_golden $end
$var wire 1 " q_dut $end
$var parameter 32 # CLOCK_PERIOD $end
$var parameter 32 $ HALF_PERIOD $end
$var parameter 32 % N_RANDOM_TESTS $end
$var reg 1 & clk $end
$var reg 1 ' d $end
$var reg 1 ( rst_aL $end
$var reg 1 ) we $end
$var integer 32 * num_random_tests [31:0] $end
$var integer 32 + num_random_tests_passed [31:0] $end
$scope module dut $end
$var wire 1 & clk $end
$var wire 1 ' d $end
$var wire 1 , rst_aL $end
$var wire 1 ) we $end
$var wire 1 - sel_d $end
$var wire 1 " q $end
$scope module dff $end
$var wire 1 & CK $end
$var wire 1 . IQ $end
$var wire 1 / IQN $end
$var wire 1 " Q $end
$var wire 1 0 QN $end
$var wire 1 , RN $end
$var wire 1 1 RNx $end
$var wire 1 2 id_6 $end
$var wire 1 3 nextstate $end
$var wire 1 4 xid_6 $end
$var wire 1 - D $end
$var reg 1 5 NOTIFIER $end
$upscope $end
$scope module mux $end
$var wire 1 " A $end
$var wire 1 ' B $end
$var wire 1 ) S $end
$var wire 1 - Z $end
$var wire 1 6 i_12 $end
$var wire 1 7 i_13 $end
$var wire 1 8 i_14 $end
$upscope $end
$upscope $end
$scope module golden $end
$var wire 1 & clk $end
$var wire 1 ' d $end
$var wire 1 ! q $end
$var wire 1 ( rst_aL $end
$var wire 1 ) we $end
$var reg 1 9 q_r $end
$upscope $end
$scope begin $ivl_for_loop0 $end
$var integer 32 : i [31:0] $end
$upscope $end
$upscope $end
$enddefinitions $end
$comment Show the parameter values. $end
$dumpall
b1010 %
b101 $
b1010 #
$end
#0
$dumpvars
bx :
x9
x8
x7
x6
x5
14
x3
x2
x1
x0
x/
x.
x-
x,
b0 +
b0 *
x)
x(
x'
0&
x"
x!
$end
#5
1&
#10
0!
09
06
18
1'
0)
0(
0&
#15
1&
#20
12
11
b1 *
b0 :
1,
1(
0&
#25
1&
#30
0&
#35
1&
#40
b10 *
b1 :
0&
#45
1&
#50
13
1-
07
16
08
1)
0&
#55
1!
19
00
0/
1"
1.
1&
#60
b11 *
b10 :
b1 +
0&
#65
1&
#70
0&
#75
1&
#80
b100 *
b11 :
b10 +
0&
#85
1&
#90
03
0-
06
0'
0&
#95
0!
09
10
1/
0"
0.
1&
#100
b101 *
b100 :
b11 +
0&
#105
1&
#110
13
1-
16
1'
0&
#115
1!
19
00
0/
1"
1.
1&
#120
b110 *
b101 :
b100 +
0&
#125
1&
#130
17
06
18
0)
0&
#135
1&
#140
b111 *
b110 :
b101 +
0&
#145
1&
#150
03
0-
07
08
0'
1)
0&
#155
0!
09
10
1/
0"
0.
1&
#160
b1000 *
b111 :
b110 +
0&
#165
1&
#170
0&
#175
1&
#180
b1001 *
b1000 :
b111 +
0&
#185
1&
#190
0&
#195
1&
#200
b1010 *
b1001 :
b1000 +
0&
#205
1&
#210
13
1-
16
1'
0&
#215
1!
19
00
0/
1"
1.
1&
#220
b1010 :
b1001 +
0&
