dff_we_tb.vcd
$date
	Fri Mar  8 22:08:52 2024
$end
$version
	Icarus Verilog
$end
$timescale
	1s
$end
$scope module dff_we_tb $end
$var wire 1 ! q_golden $end
$var wire 1 " q_dut $end
$var parameter 32 # CLOCK_PERIOD $end
$var parameter 32 $ HALF_PERIOD $end
$var parameter 32 % N_RANDOM_TESTS $end
$var reg 1 & clk $end
$var reg 1 ' d $end
$var reg 1 ( rst_aL $end
$var reg 1 ) we $end
$var integer 32 * num_random_tests [31:0] $end
$var integer 32 + num_random_tests_passed [31:0] $end
$scope module dut $end
$var wire 1 & clk $end
$var wire 1 ' d $end
$var wire 1 , rst_aL $end
$var wire 1 ) we $end
$var wire 1 - sel_d $end
$var wire 1 " q $end
$scope module dff $end
$var wire 1 & CK $end
$var wire 1 . IQ $end
$var wire 1 / IQN $end
$var wire 1 " Q $end
$var wire 1 0 QN $end
$var wire 1 , RN $end
$var wire 1 1 RNx $end
$var wire 1 2 id_6 $end
$var wire 1 3 nextstate $end
$var wire 1 4 xid_6 $end
$var wire 1 - D $end
$var reg 1 5 NOTIFIER $end
$upscope $end
$scope module mux $end
$var wire 1 " A $end
$var wire 1 ' B $end
$var wire 1 ) S $end
$var wire 1 - Z $end
$var wire 1 6 i_12 $end
$var wire 1 7 i_13 $end
$var wire 1 8 i_14 $end
$upscope $end
$upscope $end
$scope module golden $end
$var wire 1 & clk $end
$var wire 1 ' d $end
$var wire 1 ! q $end
$var wire 1 ( rst_aL $end
$var wire 1 ) we $end
$var reg 1 9 q_r $end
$upscope $end
$scope begin $ivl_for_loop0 $end
$var integer 32 : i [31:0] $end
$upscope $end
$upscope $end
$enddefinitions $end
$comment Show the parameter values. $end
$dumpall
b1100100 %
b101 $
b1010 #
$end
#0
$dumpvars
bx :
x9
x8
x7
x6
x5
14
x3
x2
x1
x0
x/
x.
x-
x,
b0 +
b0 *
x)
x(
x'
0&
x"
x!
$end
#5
1&
#10
0!
09
06
18
1'
0)
0(
0&
#15
1&
#20
12
11
b1 *
b0 :
1,
1(
0&
#25
1&
#30
0&
#35
1&
#40
b10 *
b1 :
0&
#45
1&
#50
13
1-
07
16
08
1)
0&
#55
1!
19
00
0/
1"
1.
1&
#60
b11 *
b10 :
b1 +
0&
#65
1&
#70
0&
#75
1&
#80
b100 *
b11 :
b10 +
0&
#85
1&
#90
03
0-
06
0'
0&
#95
0!
09
10
1/
0"
0.
1&
#100
b101 *
b100 :
b11 +
0&
#105
1&
#110
13
1-
16
1'
0&
#115
1!
19
00
0/
1"
1.
1&
#120
b110 *
b101 :
b100 +
0&
#125
1&
#130
17
06
18
0)
0&
#135
1&
#140
b111 *
b110 :
b101 +
0&
#145
1&
#150
03
0-
07
08
0'
1)
0&
#155
0!
09
10
1/
0"
0.
1&
#160
b1000 *
b111 :
b110 +
0&
#165
1&
#170
0&
#175
1&
#180
b1001 *
b1000 :
b111 +
0&
#185
1&
#190
0&
#195
1&
#200
b1010 *
b1001 :
b1000 +
0&
#205
1&
#210
13
1-
16
1'
0&
#215
1!
19
00
0/
1"
1.
1&
#220
b1011 *
b1010 :
b1001 +
0&
#225
1&
#230
17
06
18
0)
0&
#235
1&
#240
b1100 *
b1011 :
b1010 +
0&
#245
1&
#250
0'
0&
#255
1&
#260
b1101 *
b1100 :
b1011 +
0&
#265
1&
#270
1'
0&
#275
1&
#280
b1110 *
b1101 :
b1100 +
0&
#285
1&
#290
0&
#295
1&
#300
b1111 *
b1110 :
b1101 +
0&
#305
1&
#310
07
16
08
1)
0&
#315
1&
#320
b10000 *
b1111 :
b1110 +
0&
#325
1&
#330
03
0-
06
0'
0&
#335
0!
09
10
1/
0"
0.
1&
#340
b10001 *
b10000 :
b1111 +
0&
#345
1&
#350
18
0)
0&
#355
1&
#360
b10010 *
b10001 :
b10000 +
0&
#365
1&
#370
1'
0&
#375
1&
#380
b10011 *
b10010 :
b10001 +
0&
#385
1&
#390
0&
#395
1&
#400
b10100 *
b10011 :
b10010 +
0&
#405
1&
#410
13
1-
16
08
1)
0&
#415
1!
19
00
0/
1"
1.
1&
#420
b10101 *
b10100 :
b10011 +
0&
#425
1&
#430
0&
#435
1&
#440
b10110 *
b10101 :
b10100 +
0&
#445
1&
#450
17
06
18
0'
0)
0&
#455
1&
#460
b10111 *
b10110 :
b10101 +
0&
#465
1&
#470
07
16
08
1'
1)
0&
#475
1&
#480
b11000 *
b10111 :
b10110 +
0&
#485
1&
#490
03
0-
06
0'
0&
#495
0!
09
10
1/
0"
0.
1&
#500
b11001 *
b11000 :
b10111 +
0&
#505
1&
#510
18
0)
0&
#515
1&
#520
b11010 *
b11001 :
b11000 +
0&
#525
1&
#530
0&
#535
1&
#540
b11011 *
b11010 :
b11001 +
0&
#545
1&
#550
08
1)
0&
#555
1&
#560
b11100 *
b11011 :
b11010 +
0&
#565
1&
#570
18
1'
0)
0&
#575
1&
#580
b11101 *
b11100 :
b11011 +
0&
#585
1&
#590
08
0'
1)
0&
#595
1&
#600
b11110 *
b11101 :
b11100 +
0&
#605
1&
#610
18
0)
0&
#615
1&
#620
b11111 *
b11110 :
b11101 +
0&
#625
1&
#630
0&
#635
1&
#640
b100000 *
b11111 :
b11110 +
0&
#645
1&
#650
13
1-
16
08
1'
1)
0&
#655
1!
19
00
0/
1"
1.
1&
#660
b100001 *
b100000 :
b11111 +
0&
#665
1&
#670
0&
#675
1&
#680
b100010 *
b100001 :
b100000 +
0&
#685
1&
#690
03
0-
06
0'
0&
#695
0!
09
10
1/
0"
0.
1&
#700
b100011 *
b100010 :
b100001 +
0&
#705
1&
#710
18
1'
0)
0&
#715
1&
#720
b100100 *
b100011 :
b100010 +
0&
#725
1&
#730
13
1-
16
08
1)
0&
#735
1!
19
00
0/
1"
1.
1&
#740
b100101 *
b100100 :
b100011 +
0&
#745
1&
#750
17
06
18
0'
0)
0&
#755
1&
#760
b100110 *
b100101 :
b100100 +
0&
#765
1&
#770
07
16
08
1'
1)
0&
#775
1&
#780
b100111 *
b100110 :
b100101 +
0&
#785
1&
#790
17
06
18
0)
0&
#795
1&
#800
b101000 *
b100111 :
b100110 +
0&
#805
1&
#810
03
0-
07
08
0'
1)
0&
#815
0!
09
10
1/
0"
0.
1&
#820
b101001 *
b101000 :
b100111 +
0&
#825
1&
#830
13
1-
16
1'
0&
#835
1!
19
00
0/
1"
1.
1&
#840
b101010 *
b101001 :
b101000 +
0&
#845
1&
#850
03
0-
06
0'
0&
#855
0!
09
10
1/
0"
0.
1&
#860
b101011 *
b101010 :
b101001 +
0&
#865
1&
#870
13
1-
16
1'
0&
#875
1!
19
00
0/
1"
1.
1&
#880
b101100 *
b101011 :
b101010 +
0&
#885
1&
#890
17
06
18
0'
0)
0&
#895
1&
#900
b101101 *
b101100 :
b101011 +
0&
#905
1&
#910
0&
#915
1&
#920
b101110 *
b101101 :
b101100 +
0&
#925
1&
#930
07
16
08
1'
1)
0&
#935
1&
#940
b101111 *
b101110 :
b101101 +
0&
#945
1&
#950
17
06
18
0'
0)
0&
#955
1&
#960
b110000 *
b101111 :
b101110 +
0&
#965
1&
#970
07
16
08
1'
1)
0&
#975
1&
#980
b110001 *
b110000 :
b101111 +
0&
#985
1&
#990
0&
#995
1&
#1000
b110010 *
b110001 :
b110000 +
0&
#1005
1&
#1010
03
0-
06
0'
0&
#1015
0!
09
10
1/
0"
0.
1&
#1020
b110011 *
b110010 :
b110001 +
0&
#1025
1&
#1030
13
1-
16
1'
0&
#1035
1!
19
00
0/
1"
1.
1&
#1040
b110100 *
b110011 :
b110010 +
0&
#1045
1&
#1050
03
0-
06
0'
0&
#1055
0!
09
10
1/
0"
0.
1&
#1060
b110101 *
b110100 :
b110011 +
0&
#1065
1&
#1070
18
0)
0&
#1075
1&
#1080
b110110 *
b110101 :
b110100 +
0&
#1085
1&
#1090
0&
#1095
1&
#1100
b110111 *
b110110 :
b110101 +
0&
#1105
1&
#1110
0&
#1115
1&
#1120
b111000 *
b110111 :
b110110 +
0&
#1125
1&
#1130
13
1-
16
08
1'
1)
0&
#1135
1!
19
00
0/
1"
1.
1&
#1140
b111001 *
b111000 :
b110111 +
0&
#1145
1&
#1150
0&
#1155
1&
#1160
b111010 *
b111001 :
b111000 +
0&
#1165
1&
#1170
03
0-
06
0'
0&
#1175
0!
09
10
1/
0"
0.
1&
#1180
b111011 *
b111010 :
b111001 +
0&
#1185
1&
#1190
13
1-
16
1'
0&
#1195
1!
19
00
0/
1"
1.
1&
#1200
b111100 *
b111011 :
b111010 +
0&
#1205
1&
#1210
17
06
18
0'
0)
0&
#1215
1&
#1220
b111101 *
b111100 :
b111011 +
0&
#1225
1&
#1230
07
16
08
1'
1)
0&
#1235
1&
#1240
b111110 *
b111101 :
b111100 +
0&
#1245
1&
#1250
17
06
18
0)
0&
#1255
1&
#1260
b111111 *
b111110 :
b111101 +
0&
#1265
1&
#1270
07
16
08
1)
0&
#1275
1&
#1280
b1000000 *
b111111 :
b111110 +
0&
#1285
1&
#1290
03
0-
06
0'
0&
#1295
0!
09
10
1/
0"
0.
1&
#1300
b1000001 *
b1000000 :
b111111 +
0&
#1305
1&
#1310
18
0)
0&
#1315
1&
#1320
b1000010 *
b1000001 :
b1000000 +
0&
#1325
1&
#1330
08
1)
0&
#1335
1&
#1340
b1000011 *
b1000010 :
b1000001 +
0&
#1345
1&
#1350
18
0)
0&
#1355
1&
#1360
b1000100 *
b1000011 :
b1000010 +
0&
#1365
1&
#1370
13
1-
16
08
1'
1)
0&
#1375
1!
19
00
0/
1"
1.
1&
#1380
b1000101 *
b1000100 :
b1000011 +
0&
#1385
1&
#1390
17
06
18
0'
0)
0&
#1395
1&
#1400
b1000110 *
b1000101 :
b1000100 +
0&
#1405
1&
#1410
03
0-
07
08
1)
0&
#1415
0!
09
10
1/
0"
0.
1&
#1420
b1000111 *
b1000110 :
b1000101 +
0&
#1425
1&
#1430
18
0)
0&
#1435
1&
#1440
b1001000 *
b1000111 :
b1000110 +
0&
#1445
1&
#1450
08
1)
0&
#1455
1&
#1460
b1001001 *
b1001000 :
b1000111 +
0&
#1465
1&
#1470
18
1'
0)
0&
#1475
1&
#1480
b1001010 *
b1001001 :
b1001000 +
0&
#1485
1&
#1490
0&
#1495
1&
#1500
b1001011 *
b1001010 :
b1001001 +
0&
#1505
1&
#1510
13
1-
16
08
1)
0&
#1515
1!
19
00
0/
1"
1.
1&
#1520
b1001100 *
b1001011 :
b1001010 +
0&
#1525
1&
#1530
0&
#1535
1&
#1540
b1001101 *
b1001100 :
b1001011 +
0&
#1545
1&
#1550
17
06
18
0'
0)
0&
#1555
1&
#1560
b1001110 *
b1001101 :
b1001100 +
0&
#1565
1&
#1570
1'
0&
#1575
1&
#1580
b1001111 *
b1001110 :
b1001101 +
0&
#1585
1&
#1590
0'
0&
#1595
1&
#1600
b1010000 *
b1001111 :
b1001110 +
0&
#1605
1&
#1610
07
16
08
1'
1)
0&
#1615
1&
#1620
b1010001 *
b1010000 :
b1001111 +
0&
#1625
1&
#1630
17
06
18
0'
0)
0&
#1635
1&
#1640
b1010010 *
b1010001 :
b1010000 +
0&
#1645
1&
#1650
1'
0&
#1655
1&
#1660
b1010011 *
b1010010 :
b1010001 +
0&
#1665
1&
#1670
03
0-
07
08
0'
1)
0&
#1675
0!
09
10
1/
0"
0.
1&
#1680
b1010100 *
b1010011 :
b1010010 +
0&
#1685
1&
#1690
18
0)
0&
#1695
1&
#1700
b1010101 *
b1010100 :
b1010011 +
0&
#1705
1&
#1710
13
1-
16
08
1'
1)
0&
#1715
1!
19
00
0/
1"
1.
1&
#1720
b1010110 *
b1010101 :
b1010100 +
0&
#1725
1&
#1730
17
06
18
0'
0)
0&
#1735
1&
#1740
b1010111 *
b1010110 :
b1010101 +
0&
#1745
1&
#1750
1'
0&
#1755
1&
#1760
b1011000 *
b1010111 :
b1010110 +
0&
#1765
1&
#1770
0'
0&
#1775
1&
#1780
b1011001 *
b1011000 :
b1010111 +
0&
#1785
1&
#1790
03
0-
07
08
1)
0&
#1795
0!
09
10
1/
0"
0.
1&
#1800
b1011010 *
b1011001 :
b1011000 +
0&
#1805
1&
#1810
18
0)
0&
#1815
1&
#1820
b1011011 *
b1011010 :
b1011001 +
0&
#1825
1&
#1830
08
1)
0&
#1835
1&
#1840
b1011100 *
b1011011 :
b1011010 +
0&
#1845
1&
#1850
13
1-
16
1'
0&
#1855
1!
19
00
0/
1"
1.
1&
#1860
b1011101 *
b1011100 :
b1011011 +
0&
#1865
1&
#1870
17
06
18
0'
0)
0&
#1875
1&
#1880
b1011110 *
b1011101 :
b1011100 +
0&
#1885
1&
#1890
0&
#1895
1&
#1900
b1011111 *
b1011110 :
b1011101 +
0&
#1905
1&
#1910
03
0-
07
08
1)
0&
#1915
0!
09
10
1/
0"
0.
1&
#1920
b1100000 *
b1011111 :
b1011110 +
0&
#1925
1&
#1930
18
0)
0&
#1935
1&
#1940
b1100001 *
b1100000 :
b1011111 +
0&
#1945
1&
#1950
1'
0&
#1955
1&
#1960
b1100010 *
b1100001 :
b1100000 +
0&
#1965
1&
#1970
13
1-
16
08
1)
0&
#1975
1!
19
00
0/
1"
1.
1&
#1980
b1100011 *
b1100010 :
b1100001 +
0&
#1985
1&
#1990
17
06
18
0)
0&
#1995
1&
#2000
b1100100 *
b1100011 :
b1100010 +
0&
#2005
1&
#2010
07
16
08
1)
0&
#2015
1&
#2020
b1100100 :
b1100011 +
0&
